Single Cancer Analysis and Figures
…
  # summarise_all("mean") %>% f
  # gather(variable,region_mean, -state_region) %>% 
  # ggplot(aes(y=variable,x=region_mean, color=state_region)) +
  # geom_point() + theme(axis.text.x = element_text(angle = 90, hjust = 1))
can_reg_state %>%
  janitor::clean_names() %>% 
  dplyr::select(state,county,incidence_rate, everything()) %>% 
  dplyr::arrange(-incidence_rate)

## # A tibble: 3,047 x 38
##    state county incidence_rate avg_ann_count avg_deaths_per_~
##    <chr> <chr>           <dbl>         <dbl>            <int>
##  1 Flor~ Union~          1207.           214               61
##  2 Virg~ Willi~          1014.           135               23
##  3 Virg~ Charl~           719.           250               60
##  4 Virg~ Peter~           651.           249               88
##  5 Kent~ Brack~           640.            61               23
##  6 Kent~ Powel~           630.            91               40
##  7 Virg~ Wayne~           597.           157               58
##  8 Virg~ Harri~           591.           190               51
##  9 West~ Clay ~           591             70               26
## 10 Oreg~ Sherm~           587.            16                5
## # ... with 3,037 more rows, and 33 more variables:
## #   target_death_rate <dbl>, med_income <int>, pop_est2015 <int>,
## #   poverty_percent <dbl>, study_per_cap <dbl>, binned_inc <chr>,
## #   median_age <dbl>, median_age_male <dbl>, median_age_female <dbl>,
## #   geography <chr>, avg_household_size <dbl>, percent_married <dbl>,
## #   pct_no_hs18_24 <dbl>, pct_hs18_24 <dbl>, pct_some_col18_24 <dbl>,
## #   pct_bach_deg18_24 <dbl>, pct_hs25_over <dbl>,
## #   pct_bach_deg25_over <dbl>, pct_employed16_over <dbl>,
## #   pct_unemployed16_over <dbl>, pct_private_coverage <dbl>,
…
can_filt4 %>% 
  filter(state_region == "West") %>% 
  group_by(state,county) %>% 
  # summarize(marriage_pct = mean(pct_married_households),
  #           marriage_pct = mean(pct_married_households)) %>% 
  select(state,county,pct_married_households,pct_bach_deg25_over,pct_hs25_over,med_income, everything()) %>% 
  arrange(-pct_married_households)

## # A tibble: 418 x 18
## # Groups:   state, county [418]
##    state county pct_married_hou~ pct_bach_deg25_~ pct_hs25_over med_income
##    <chr> <chr>             <dbl>            <dbl>         <dbl>      <int>
##  1 Utah  Morga~             78.1             24.8          24.4      82597
##  2 Idaho Madis~             71.7             23.3          15.8      36065
##  3 Utah  Utah ~             71.1             25.8          16.8      60957
##  4 Utah  Rich ~             70.8             15.2          37.6      56772
##  5 Idaho Fremo~             69.3             14.9          34.2      45578
##  6 Utah  Box E~             68.6             15.1          32.5      56313
##  7 Idaho Frank~             68.2             14.1          33.4      50545
##  8 Colo~ Elber~             68.2             22            27        83603
##  9 Utah  Davis~             68.1             24.1          21.2      70797
## 10 Utah  Juab ~             67.6             11.5          35        55204
## # ... with 408 more rows, and 12 more variables: target_death_rate <dbl>,
## #   incidence_rate <dbl>, poverty_percent <dbl>, median_age_female <dbl>,
## #   avg_household_size <dbl>, pct_unemployed16_over <dbl>,
## #   pct_public_coverage_alone <dbl>, pct_white <dbl>, birth_rate <dbl>,
## #   state_region <fct>, lungbronc <dbl>, top_can <fct>

We look at the top counties by percent married and find that these locations tend to have a higher education than the regional average of 51.2438721 and national average of 51.9079792 percent. They are more educated than the national average of 15.8212919% individuals with a bachelors degree and 29.176555 with a high school education above 25. They also have lower death rates and ages than average as well.

Well also note that the relationship between education, poverty, cancer death rate, and insurance has interesting regional trends.

#excluding from report. filter(str_detect(string = estimate,":")) %>%
lm(data=can_reg_joined, target_death_rate ~ study_per_cap*state) %>% broom::tidy() %>%  filter(p.value < 0.05) %>%  arrange(estimate)

## # A tibble: 38 x 5
##    term              estimate std.error statistic  p.value
##    <chr>                <dbl>     <dbl>     <dbl>    <dbl>
##  1 stateUtah            -58.3      5.49    -10.6  6.52e-26
##  2 stateColorado        -51.2      4.46    -11.5  7.24e-30
##  3 stateHawaii          -48.1     17.7      -2.72 6.59e- 3
##  4 stateArizona         -45.9      8.01     -5.74 1.06e- 8
##  5 stateIdaho           -40.8      4.93     -8.28 1.83e-16
##  6 stateConnecticut     -36.7     13.5      -2.73 6.39e- 3
##  7 stateNorth Dakota    -34.9      4.52     -7.72 1.56e-14
##  8 stateNew Mexico      -34.5      5.34     -6.46 1.25e-10
##  9 stateWyoming         -34.0      5.94     -5.72 1.19e- 8
## 10 stateNebraska        -32.4      4.03     -8.04 1.31e-15
## # ... with 28 more rows
…
can_filt_florida %>% 
  arrange(-lungbronc,-target_death_rate) %>% 
  select(county,state,lungbronc,target_death_rate,everything())

## # A tibble: 66 x 18
##    county state lungbronc target_death_ra~ incidence_rate med_income
##    <chr>  <chr>     <dbl>            <dbl>          <dbl>      <int>
##  1 Union~ Flor~     215.              363.          1207.      40207
##  2 Dixie~ Flor~     102.              196.           437.      32121
##  3 Okeec~ Flor~     100.              203.           441.      37065
##  4 Levy ~ Flor~      96.5             232            497.      37433
##  5 Lafay~ Flor~      92.3             208.           380.      38071
##  6 Putna~ Flor~      91               212.           488.      32054
##  7 Baker~ Flor~      90.1             206.           475.      47121
##  8 Colum~ Flor~      89.4             203.           454.      38484
##  9 Wakul~ Flor~      87.6             209.           457.      51642
## 10 Hamil~ Flor~      86.9             188.           337.      31734
## # ... with 56 more rows, and 12 more variables: poverty_percent <dbl>,
## #   median_age_female <dbl>, avg_household_size <dbl>,
## #   pct_hs25_over <dbl>, pct_bach_deg25_over <dbl>,
## #   pct_unemployed16_over <dbl>, pct_public_coverage_alone <dbl>,
## #   pct_white <dbl>, pct_married_households <dbl>, birth_rate <dbl>,
## #   state_region <fct>, top_can <fct>
…
